asgiref==3.4.1
autopep8==1.6.0
backports.zoneinfo==0.2.1
black==21.12b0
click==8.0.3
Django==4.0
django-render-partial==0.4
djangorestframework==3.13.1
mypy-extensions==0.4.3
pathspec==0.9.0
Pillow==8.4.0
platformdirs==2.4.0
pycodestyle==2.8.0
pytz==2021.3
sqlparse==0.4.2
toml==0.10.2
tomli==1.2.3
typing-extensions==4.0.1
